┌─────────┬─────────────────────┬─────────────────────┬──────────────┬──────────────┬──────────────┬──────────────┐
│  type   │   pickup_datetime   │  dropOff_datetime   │ duration_min │ duration_sec │ PUlocationID │ DOlocationID │
│ varchar │      timestamp      │      timestamp      │    int64     │    int64     │    double    │    double    │
├─────────┼─────────────────────┼─────────────────────┼──────────────┼──────────────┼──────────────┼──────────────┤
│ fhv     │ 2020-03-06 06:22:36 │ 2020-03-06 06:31:04 │            9 │          508 │              │        127.0 │
│ fhv     │ 2020-03-06 06:10:07 │ 2020-03-06 06:11:33 │            1 │           86 │              │         42.0 │
│ fhv     │ 2020-03-06 06:18:52 │ 2020-03-06 06:31:17 │           13 │          745 │              │        168.0 │
│ fhv     │ 2020-03-06 06:48:52 │ 2020-03-06 06:49:42 │            1 │           50 │              │        159.0 │
│ fhv     │ 2020-03-06 06:16:55 │ 2020-03-06 06:31:37 │           15 │          882 │              │         42.0 │
│ fhv     │ 2020-03-06 06:31:13 │ 2020-03-06 06:48:13 │           17 │         1020 │              │        168.0 │
│ fhv     │ 2020-03-06 06:13:19 │ 2020-03-06 06:17:09 │            4 │          230 │              │        168.0 │
│ fhv     │ 2020-03-06 06:49:00 │ 2020-03-06 07:38:00 │           49 │         2940 │              │              │
│ fhv     │ 2020-03-06 06:21:00 │ 2020-03-06 06:57:00 │           36 │         2160 │              │              │
│ fhv     │ 2020-03-06 06:06:18 │ 2020-03-06 06:15:54 │            9 │          576 │              │        216.0 │
│ fhv     │ 2020-03-06 06:54:14 │ 2020-03-06 07:00:31 │            6 │          377 │              │         61.0 │
│ fhv     │ 2020-03-06 06:31:07 │ 2020-03-06 06:44:48 │           13 │          821 │              │         35.0 │
│ fhv     │ 2020-03-06 06:33:26 │ 2020-03-06 06:40:13 │            7 │          407 │              │         81.0 │
│ fhv     │ 2020-03-06 06:08:16 │ 2020-03-06 06:53:16 │           45 │         2700 │              │        174.0 │
│ fhv     │ 2020-03-06 06:35:51 │ 2020-03-06 06:50:13 │           15 │          862 │              │        174.0 │
│ fhv     │ 2020-03-06 06:16:51 │ 2020-03-06 06:31:29 │           15 │          878 │              │        265.0 │
│ fhv     │ 2020-03-06 06:49:53 │ 2020-03-06 07:04:18 │           15 │          865 │              │        265.0 │
│ fhv     │ 2020-03-06 06:26:15 │ 2020-03-06 06:47:20 │           21 │         1265 │              │        265.0 │
│ fhv     │ 2020-03-06 06:05:27 │ 2020-03-06 06:13:13 │            8 │          466 │              │        265.0 │
│ fhv     │ 2020-03-06 06:52:10 │ 2020-03-06 07:05:15 │           13 │          785 │              │        265.0 │
│  ·      │          ·          │          ·          │            · │           ·  │      ·       │          ·   │
│  ·      │          ·          │          ·          │            · │           ·  │      ·       │          ·   │
│  ·      │          ·          │          ·          │            · │           ·  │      ·       │          ·   │
│ fhv     │ 2020-02-20 09:35:00 │ 2020-02-20 10:09:00 │           34 │         2040 │              │              │
│ fhv     │ 2020-02-20 09:31:23 │ 2020-02-20 10:46:42 │           75 │         4519 │              │        170.0 │
│ fhv     │ 2020-02-20 09:56:46 │ 2020-02-20 11:01:23 │           65 │         3877 │              │        100.0 │
│ fhv     │ 2020-02-20 09:15:00 │ 2020-02-20 10:26:35 │           71 │         4295 │              │        230.0 │
│ fhv     │ 2020-02-20 09:56:12 │ 2020-02-20 10:17:18 │           21 │         1266 │              │        138.0 │
│ fhv     │ 2020-02-20 09:05:00 │ 2020-02-20 09:10:00 │            5 │          300 │              │              │
│ fhv     │ 2020-02-20 09:40:00 │ 2020-02-20 09:45:00 │            5 │          300 │              │              │
│ fhv     │ 2020-02-20 09:05:26 │ 2020-02-20 09:08:47 │            3 │          201 │              │        178.0 │
│ fhv     │ 2020-02-20 09:35:03 │ 2020-02-20 10:17:29 │           42 │         2546 │              │        140.0 │
│ fhv     │ 2020-02-20 09:49:57 │ 2020-02-20 09:55:35 │            6 │          338 │              │         26.0 │
│ fhv     │ 2020-02-20 09:41:10 │ 2020-02-20 10:09:22 │           28 │         1692 │              │              │
│ fhv     │ 2020-02-20 09:44:16 │ 2020-02-20 10:20:52 │           36 │         2196 │              │              │
│ fhv     │ 2020-02-20 09:09:34 │ 2020-02-20 09:46:10 │           37 │         2196 │              │              │
│ fhv     │ 2020-02-20 09:59:06 │ 2020-02-20 10:35:42 │           36 │         2196 │              │              │
│ fhv     │ 2020-02-20 09:02:16 │ 2020-02-20 09:35:52 │           33 │         2016 │              │              │
│ fhv     │ 2020-02-20 09:35:35 │ 2020-02-20 10:03:47 │           28 │         1692 │              │              │
│ fhv     │ 2020-02-20 09:44:25 │ 2020-02-20 10:21:01 │           37 │         2196 │              │              │
│ fhv     │ 2020-02-20 09:50:19 │ 2020-02-20 10:26:55 │           36 │         2196 │              │              │
│ fhv     │ 2020-02-20 09:59:06 │ 2020-02-20 10:33:54 │           34 │         2088 │              │              │
│ fhv     │ 2020-02-20 09:44:57 │ 2020-02-20 10:21:33 │           37 │         2196 │              │              │
├─────────┴─────────────────────┴─────────────────────┴──────────────┴──────────────┴──────────────┴──────────────┤
│ 15679790 rows (40 shown)                                                                              7 columns │
└─────────────────────────────────────────────────────────────────────────────────────────────────────────────────┘
