┌───────────────┬──────────┬─────────────┬──────────────────────┬───────────────────────────┬──────────────────────┐
│     Zone      │ Borough  │ fare_amount │ average_fare_borough │ average_fare_zone_borough │ overall_average_fare │
│    varchar    │ varchar  │   double    │        double        │          double           │        double        │
├───────────────┼──────────┼─────────────┼──────────────────────┼───────────────────────────┼──────────────────────┤
│ Melrose South │ Bronx    │       22.83 │   28.215169028557664 │        21.513113446442738 │   13.141501256130956 │
│ Melrose South │ Bronx    │       23.82 │   28.215169028557664 │        21.513113446442738 │   13.141501256130956 │
│ Melrose South │ Bronx    │        10.5 │   28.215169028557664 │        21.513113446442738 │   13.141501256130956 │
│ Melrose South │ Bronx    │        40.2 │   28.215169028557664 │        21.513113446442738 │   13.141501256130956 │
│ Melrose South │ Bronx    │        12.5 │   28.215169028557664 │        21.513113446442738 │   13.141501256130956 │
│ Melrose South │ Bronx    │        22.5 │   28.215169028557664 │        21.513113446442738 │   13.141501256130956 │
│ Melrose South │ Bronx    │        13.0 │   28.215169028557664 │        21.513113446442738 │   13.141501256130956 │
│ Melrose South │ Bronx    │        10.0 │   28.215169028557664 │        21.513113446442738 │   13.141501256130956 │
│ Melrose South │ Bronx    │        48.2 │   28.215169028557664 │        21.513113446442738 │   13.141501256130956 │
│ Melrose South │ Bronx    │        10.5 │   28.215169028557664 │        21.513113446442738 │   13.141501256130956 │
│ Melrose South │ Bronx    │        55.5 │   28.215169028557664 │        21.513113446442738 │   13.141501256130956 │
│ Melrose South │ Bronx    │         8.0 │   28.215169028557664 │        21.513113446442738 │   13.141501256130956 │
│ Melrose South │ Bronx    │        13.5 │   28.215169028557664 │        21.513113446442738 │   13.141501256130956 │
│ Melrose South │ Bronx    │         6.5 │   28.215169028557664 │        21.513113446442738 │   13.141501256130956 │
│ Melrose South │ Bronx    │         9.0 │   28.215169028557664 │        21.513113446442738 │   13.141501256130956 │
│ Melrose South │ Bronx    │        71.5 │   28.215169028557664 │        21.513113446442738 │   13.141501256130956 │
│ Melrose South │ Bronx    │         9.0 │   28.215169028557664 │        21.513113446442738 │   13.141501256130956 │
│ Melrose South │ Bronx    │        21.0 │   28.215169028557664 │        21.513113446442738 │   13.141501256130956 │
│ Melrose South │ Bronx    │        19.0 │   28.215169028557664 │        21.513113446442738 │   13.141501256130956 │
│ Melrose South │ Bronx    │         8.0 │   28.215169028557664 │        21.513113446442738 │   13.141501256130956 │
│    ·          │   ·      │          ·  │            ·         │                 ·         │            ·         │
│    ·          │   ·      │          ·  │            ·         │                 ·         │            ·         │
│    ·          │   ·      │          ·  │            ·         │                 ·         │            ·         │
│ Erasmus       │ Brooklyn │       28.76 │   24.343840609150085 │        28.906747299558848 │   13.141501256130956 │
│ Erasmus       │ Brooklyn │       25.76 │   24.343840609150085 │        28.906747299558848 │   13.141501256130956 │
│ Erasmus       │ Brooklyn │       27.44 │   24.343840609150085 │        28.906747299558848 │   13.141501256130956 │
│ Erasmus       │ Brooklyn │       27.32 │   24.343840609150085 │        28.906747299558848 │   13.141501256130956 │
│ Erasmus       │ Brooklyn │       28.76 │   24.343840609150085 │        28.906747299558848 │   13.141501256130956 │
│ Erasmus       │ Brooklyn │        24.9 │   24.343840609150085 │        28.906747299558848 │   13.141501256130956 │
│ Erasmus       │ Brooklyn │       36.71 │   24.343840609150085 │        28.906747299558848 │   13.141501256130956 │
│ Erasmus       │ Brooklyn │       40.69 │   24.343840609150085 │        28.906747299558848 │   13.141501256130956 │
│ Erasmus       │ Brooklyn │       35.74 │   24.343840609150085 │        28.906747299558848 │   13.141501256130956 │
│ Erasmus       │ Brooklyn │       34.63 │   24.343840609150085 │        28.906747299558848 │   13.141501256130956 │
│ Erasmus       │ Brooklyn │        40.8 │   24.343840609150085 │        28.906747299558848 │   13.141501256130956 │
│ Erasmus       │ Brooklyn │        53.2 │   24.343840609150085 │        28.906747299558848 │   13.141501256130956 │
│ Erasmus       │ Brooklyn │       27.32 │   24.343840609150085 │        28.906747299558848 │   13.141501256130956 │
│ Erasmus       │ Brooklyn │       47.61 │   24.343840609150085 │        28.906747299558848 │   13.141501256130956 │
│ Erasmus       │ Brooklyn │       49.09 │   24.343840609150085 │        28.906747299558848 │   13.141501256130956 │
│ Erasmus       │ Brooklyn │       27.32 │   24.343840609150085 │        28.906747299558848 │   13.141501256130956 │
│ Erasmus       │ Brooklyn │       23.33 │   24.343840609150085 │        28.906747299558848 │   13.141501256130956 │
│ Erasmus       │ Brooklyn │       26.18 │   24.343840609150085 │        28.906747299558848 │   13.141501256130956 │
│ Erasmus       │ Brooklyn │        24.9 │   24.343840609150085 │        28.906747299558848 │   13.141501256130956 │
│ Erasmus       │ Brooklyn │        22.5 │   24.343840609150085 │        28.906747299558848 │   13.141501256130956 │
├───────────────┴──────────┴─────────────┴──────────────────────┴───────────────────────────┴──────────────────────┤
│ 55553400 rows (40 shown)                                                                               6 columns │
└──────────────────────────────────────────────────────────────────────────────────────────────────────────────────┘
